module github.com/milvus-io/milvus

go 1.18

require (
	github.com/DATA-DOG/go-sqlmock v1.5.0
	github.com/aliyun/credentials-go v1.2.6
	github.com/antlr/antlr4/runtime/Go/antlr v0.0.0-20210826220005-b48c857c3a0e
	github.com/antonmedv/expr v1.8.9
	github.com/apache/arrow/go/v8 v8.0.0-20220322092137-778b1772fd20
	github.com/apache/pulsar-client-go v0.6.1-0.20210728062540-29414db801a7
	github.com/bits-and-blooms/bloom/v3 v3.0.1
	github.com/blang/semver/v4 v4.0.0
	github.com/casbin/casbin/v2 v2.44.2
	github.com/casbin/json-adapter/v2 v2.0.0
	github.com/cockroachdb/errors v1.9.1
	github.com/confluentinc/confluent-kafka-go v1.9.1
	github.com/gin-gonic/gin v1.9.0
	github.com/gofrs/flock v0.8.1
	github.com/golang/protobuf v1.5.3
	github.com/klauspost/compress v1.14.4
	github.com/mgutz/ansi v0.0.0-20200706080929-d51e80ef957d
	github.com/milvus-io/milvus-proto/go-api v0.0.0-20230515081521-d963c95b041f
	github.com/milvus-io/milvus/pkg v0.0.0-00010101000000-000000000000
	github.com/minio/minio-go/v7 v7.0.17
	github.com/panjf2000/ants/v2 v2.7.2
	github.com/prometheus/client_golang v1.14.0
	github.com/quasilyte/go-ruleguard/dsl v0.3.21
	github.com/samber/lo v1.27.0
	github.com/sbinet/npyio v0.6.0
	github.com/spf13/viper v1.8.1
	github.com/stretchr/testify v1.8.1
	go.etcd.io/etcd/api/v3 v3.5.5
	go.etcd.io/etcd/client/v3 v3.5.5
	go.etcd.io/etcd/server/v3 v3.5.5
	go.opentelemetry.io/contrib/instrumentation/google.golang.org/grpc/otelgrpc v0.38.0
	go.opentelemetry.io/otel v1.13.0
	go.opentelemetry.io/otel/trace v1.13.0
	go.uber.org/atomic v1.10.0
	go.uber.org/multierr v1.6.0
	go.uber.org/zap v1.17.0
	golang.org/x/crypto v0.5.0
	golang.org/x/exp v0.0.0-20220303212507-bbda1eaf7a17
	golang.org/x/oauth2 v0.6.0
	golang.org/x/sync v0.1.0
	golang.org/x/text v0.8.0
	google.golang.org/grpc v1.54.0
	gorm.io/driver/mysql v1.3.5
	gorm.io/gorm v1.23.8
	stathat.com/c/consistent v1.0.0
)

require (
	github.com/BurntSushi/toml v1.2.1 // indirect
	github.com/apache/thrift v0.15.0 // indirect
	github.com/benesch/cgosymbolizer v0.0.0-20190515212042-bec6fe6e597b // indirect
	github.com/bytedance/sonic v1.8.0 // indirect
	github.com/chenzhuoyu/base64x v0.0.0-20221115062448-fe3a3abad311 // indirect
	github.com/containerd/cgroups v1.1.0 // indirect
	github.com/facebookgo/ensure v0.0.0-20200202191622-63f1cf65ac4c // indirect
	github.com/facebookgo/stack v0.0.0-20160209184415-751773369052 // indirect
	github.com/facebookgo/subset v0.0.0-20200203212716-c811ad88dec4 // indirect
	github.com/pelletier/go-toml/v2 v2.0.6 // indirect
	github.com/twitchyliquid64/golang-asm v0.15.1 // indirect
	go.uber.org/automaxprocs v1.4.0 // indirect
	golang.org/x/arch v0.0.0-20210923205945-b76863e36670 // indirect
)

require (
	cloud.google.com/go/compute v1.19.0 // indirect
	cloud.google.com/go/compute/metadata v0.2.3 // indirect
	github.com/99designs/go-keychain v0.0.0-20191008050251-8e49817e8af4 // indirect
	github.com/99designs/keyring v1.2.1 // indirect
	github.com/AthenZ/athenz v1.10.39 // indirect
	github.com/DataDog/zstd v1.5.0 // indirect
	github.com/JohnCGriffin/overflow v0.0.0-20211019200055-46fa312c352c // indirect
	github.com/Knetic/govaluate v3.0.1-0.20171022003610-9aa49832a739+incompatible // indirect
	github.com/alibabacloud-go/debug v0.0.0-20190504072949-9472017b5c68 // indirect
	github.com/alibabacloud-go/tea v1.1.8 // indirect
	github.com/andybalholm/brotli v1.0.4 // indirect
	github.com/ardielle/ardielle-go v1.5.2 // indirect
	github.com/beorn7/perks v1.0.1 // indirect
	github.com/bits-and-blooms/bitset v1.2.0 // indirect
	github.com/campoy/embedmd v1.0.0 // indirect
	github.com/cenkalti/backoff/v4 v4.2.0 // indirect
	github.com/cespare/xxhash/v2 v2.2.0 // indirect
	github.com/cockroachdb/logtags v0.0.0-20211118104740-dabe8e521a4f // indirect
	github.com/cockroachdb/redact v1.1.3 // indirect
	github.com/coreos/go-semver v0.3.0 // indirect
	github.com/coreos/go-systemd/v22 v22.3.2 // indirect
	github.com/danieljoos/wincred v1.1.2 // indirect
	github.com/davecgh/go-spew v1.1.1 // indirect
	github.com/docker/go-units v0.4.0 // indirect
	github.com/dustin/go-humanize v1.0.0 // indirect
	github.com/dvsekhvalnov/jose2go v1.5.0 // indirect
	github.com/form3tech-oss/jwt-go v3.2.3+incompatible // indirect
	github.com/fsnotify/fsnotify v1.4.9 // indirect
	github.com/getsentry/sentry-go v0.12.0 // indirect
	github.com/gin-contrib/sse v0.1.0 // indirect
	github.com/go-logr/logr v1.2.3 // indirect
	github.com/go-logr/stdr v1.2.2 // indirect
	github.com/go-ole/go-ole v1.2.6 // indirect
	github.com/go-playground/locales v0.14.1 // indirect
	github.com/go-playground/universal-translator v0.18.1 // indirect
	github.com/go-playground/validator/v10 v10.11.2 // indirect
	github.com/go-sql-driver/mysql v1.6.0 // indirect
	github.com/goccy/go-json v0.10.0 // indirect
	github.com/godbus/dbus v0.0.0-20190726142602-4481cbc300e2 // indirect
	github.com/godbus/dbus/v5 v5.0.4 // indirect
	github.com/gogo/protobuf v1.3.2 // indirect
	github.com/golang-jwt/jwt v3.2.2+incompatible // indirect
	github.com/golang/snappy v0.0.4 // indirect
	github.com/google/btree v1.0.1
	github.com/google/uuid v1.3.0 // indirect
	github.com/gorilla/websocket v1.4.2 // indirect
	github.com/grpc-ecosystem/go-grpc-middleware v1.3.0
	github.com/grpc-ecosystem/go-grpc-prometheus v1.2.0 // indirect
	github.com/grpc-ecosystem/grpc-gateway v1.16.0 // indirect
	github.com/grpc-ecosystem/grpc-gateway/v2 v2.7.0 // indirect
	github.com/gsterjov/go-libsecret v0.0.0-20161001094733-a6f4afe4910c // indirect
	github.com/hashicorp/hcl v1.0.0 // indirect
	github.com/ianlancetaylor/cgosymbolizer v0.0.0-20221217025313-27d3c9f66b6a // indirect
	github.com/jinzhu/inflection v1.0.0 // indirect
	github.com/jinzhu/now v1.1.5 // indirect
	github.com/jonboulle/clockwork v0.2.2 // indirect
	github.com/json-iterator/go v1.1.12 // indirect
	github.com/klauspost/asmfmt v1.3.1 // indirect
	github.com/klauspost/cpuid v1.3.1 // indirect
	github.com/klauspost/cpuid/v2 v2.0.9 // indirect
	github.com/kr/pretty v0.3.0 // indirect
	github.com/kr/text v0.2.0 // indirect
	github.com/leodido/go-urn v1.2.1 // indirect
	github.com/linkedin/goavro/v2 v2.11.1 // indirect
	github.com/lufia/plan9stats v0.0.0-20211012122336-39d0f177ccd0 // indirect
	github.com/magiconair/properties v1.8.5 // indirect
	github.com/mattn/go-colorable v0.1.11 // indirect
	github.com/mattn/go-isatty v0.0.17 // indirect
	github.com/matttproud/golang_protobuf_extensions v1.0.4 // indirect
	github.com/minio/asm2plan9s v0.0.0-20200509001527-cdd76441f9d8 // indirect
	github.com/minio/c2goasm v0.0.0-20190812172519-36a3d3bbc4f3 // indirect
	github.com/minio/md5-simd v1.1.0 // indirect
	github.com/minio/sha256-simd v0.1.1 // indirect
	github.com/mitchellh/go-homedir v1.1.0 // indirect
	github.com/mitchellh/mapstructure v1.4.1 // indirect
	github.com/modern-go/concurrent v0.0.0-20180306012644-bacd9c7ef1dd // indirect
	github.com/modern-go/reflect2 v1.0.2 // indirect
	github.com/mtibben/percent v0.2.1 // indirect
	github.com/opencontainers/runtime-spec v1.0.2 // indirect
	github.com/pelletier/go-toml v1.9.3 // indirect
	github.com/pierrec/lz4 v2.5.2+incompatible // indirect
	github.com/pkg/errors v0.9.1 // indirect
	github.com/pmezard/go-difflib v1.0.0 // indirect
	github.com/power-devops/perfstat v0.0.0-20210106213030-5aafc221ea8c // indirect
	github.com/prometheus/client_model v0.3.0 // indirect
	github.com/prometheus/common v0.42.0 // indirect
	github.com/prometheus/procfs v0.9.0 // indirect
	github.com/rogpeppe/go-internal v1.8.1 // indirect
	github.com/rs/xid v1.2.1 // indirect
	github.com/shirou/gopsutil/v3 v3.22.9 // indirect
	github.com/sirupsen/logrus v1.8.1 // indirect
	github.com/soheilhy/cmux v0.1.5 // indirect
	github.com/spaolacci/murmur3 v1.1.0 // indirect
	github.com/spf13/afero v1.6.0 // indirect
	github.com/spf13/cast v1.3.1 // indirect
	github.com/spf13/jwalterweatherman v1.1.0 // indirect
	github.com/spf13/pflag v1.0.5 // indirect
	github.com/streamnative/pulsarctl v0.5.0 // indirect
	github.com/stretchr/objx v0.5.0 // indirect
	github.com/subosito/gotenv v1.2.0 // indirect
	github.com/tecbot/gorocksdb v0.0.0-20191217155057-f0fad39f321c
	github.com/tklauser/go-sysconf v0.3.10 // indirect
	github.com/tklauser/numcpus v0.4.0 // indirect
	github.com/tmc/grpc-websocket-proxy v0.0.0-20201229170055-e5319fda7802 // indirect
	github.com/uber/jaeger-client-go v2.30.0+incompatible // indirect
	github.com/ugorji/go/codec v1.2.9 // indirect
	github.com/xiang90/probing v0.0.0-20190116061207-43a291ad63a2 // indirect
	github.com/yusufpapurcu/wmi v1.2.2 // indirect
	github.com/zeebo/xxh3 v1.0.1 // indirect
	go.etcd.io/bbolt v1.3.6 // indirect
	go.etcd.io/etcd/client/pkg/v3 v3.5.5 // indirect
	go.etcd.io/etcd/client/v2 v2.305.5 // indirect
	go.etcd.io/etcd/pkg/v3 v3.5.5 // indirect
	go.etcd.io/etcd/raft/v3 v3.5.5 // indirect
	go.opentelemetry.io/otel/exporters/jaeger v1.13.0 // indirect
	go.opentelemetry.io/otel/exporters/otlp/internal/retry v1.13.0 // indirect
	go.opentelemetry.io/otel/exporters/otlp/otlptrace v1.13.0 // indirect
	go.opentelemetry.io/otel/exporters/otlp/otlptrace/otlptracegrpc v1.13.0 // indirect
	go.opentelemetry.io/otel/exporters/stdout/stdouttrace v1.13.0 // indirect
	go.opentelemetry.io/otel/metric v0.35.0 // indirect
	go.opentelemetry.io/otel/sdk v1.13.0 // indirect
	go.opentelemetry.io/proto/otlp v0.19.0 // indirect
	golang.org/x/mod v0.9.0 // indirect
	golang.org/x/net v0.8.0 // indirect
	golang.org/x/sys v0.6.0 // indirect
	golang.org/x/term v0.6.0 // indirect
	golang.org/x/time v0.0.0-20210220033141-f8bda1e9f3ba // indirect
	golang.org/x/tools v0.7.0 // indirect
	golang.org/x/xerrors v0.0.0-20220907171357-04be3eba64a2 // indirect
	gonum.org/v1/gonum v0.9.3 // indirect
	google.golang.org/appengine v1.6.7 // indirect
	google.golang.org/genproto v0.0.0-20230331144136-dcfb400f0633 // indirect
	google.golang.org/grpc/examples v0.0.0-20220617181431-3e7b97febc7f
	google.golang.org/protobuf v1.30.0 // indirect
	gopkg.in/ini.v1 v1.62.0 // indirect
	gopkg.in/natefinch/lumberjack.v2 v2.0.0 // indirect
	gopkg.in/yaml.v2 v2.4.0 // indirect
	gopkg.in/yaml.v3 v3.0.1 // indirect
	sigs.k8s.io/yaml v1.2.0 // indirect
)

replace (
	github.com/apache/pulsar-client-go => github.com/milvus-io/pulsar-client-go v0.6.10
	github.com/bketelsen/crypt => github.com/bketelsen/crypt v0.0.4 // Fix security alert for core-os/etcd
	github.com/go-kit/kit => github.com/go-kit/kit v0.1.0
	github.com/milvus-io/milvus/pkg => ./pkg
	github.com/streamnative/pulsarctl => github.com/xiaofan-luan/pulsarctl v0.5.1
	github.com/tecbot/gorocksdb => github.com/milvus-io/gorocksdb v0.0.0-20220624081344-8c5f4212846b // indirect
)

exclude github.com/apache/pulsar-client-go/oauth2 v0.0.0-20211108044248-fe3b7c4e445b
